{"frames": {

"swat_walk_v01_00.png":
{
	"frame": {"x":1163,"y":894,"w":123,"h":173},
	"rotated": false,
	"trimmed": true,
	"spriteSourceSize": {"x":198,"y":147,"w":123,"h":173},
	"sourceSize": {"w":512,"h":512}
},
"swat_walk_v01_01.png":
{
	"frame": {"x":1139,"y":180,"w":124,"h":175},
	"rotated": false,
	"trimmed": true,
	"spriteSourceSize": {"x":202,"y":145,"w":124,"h":175},
	"sourceSize": {"w":512,"h":512}
},
"swat_walk_v01_02.png":
{
	"frame": {"x":1036,"y":906,"w":125,"h":176},
	"rotated": false,
	"trimmed": true,
	"spriteSourceSize": {"x":200,"y":144,"w":125,"h":176},
	"sourceSize": {"w":512,"h":512}
},
"swat_walk_v01_03.png":
{
	"frame": {"x":878,"y":367,"w":120,"h":178},
	"rotated": false,
	"trimmed": true,
	"spriteSourceSize": {"x":198,"y":142,"w":120,"h":178},
	"sourceSize": {"w":512,"h":512}
},
"swat_walk_v01_04.png":
{
	"frame": {"x":763,"y":367,"w":113,"h":179},
	"rotated": false,
	"trimmed": true,
	"spriteSourceSize": {"x":197,"y":141,"w":113,"h":179},
	"sourceSize": {"w":512,"h":512}
},
"swat_walk_v01_05.png":
{
	"frame": {"x":657,"y":744,"w":112,"h":180},
	"rotated": false,
	"trimmed": true,
	"spriteSourceSize": {"x":195,"y":140,"w":112,"h":180},
	"sourceSize": {"w":512,"h":512}
},
"swat_walk_v01_06.png":
{
	"frame": {"x":655,"y":939,"w":114,"h":180},
	"rotated": false,
	"trimmed": true,
	"spriteSourceSize": {"x":194,"y":140,"w":114,"h":180},
	"sourceSize": {"w":512,"h":512}
},
"swat_walk_v01_07.png":
{
	"frame": {"x":636,"y":561,"w":116,"h":181},
	"rotated": false,
	"trimmed": true,
	"spriteSourceSize": {"x":192,"y":140,"w":116,"h":181},
	"sourceSize": {"w":512,"h":512}
},
"swat_walk_v01_08.png":
{
	"frame": {"x":382,"y":581,"w":117,"h":186},
	"rotated": false,
	"trimmed": true,
	"spriteSourceSize": {"x":191,"y":140,"w":117,"h":186},
	"sourceSize": {"w":512,"h":512}
},
"swat_walk_v01_09.png":
{
	"frame": {"x":136,"y":600,"w":117,"h":191},
	"rotated": false,
	"trimmed": true,
	"spriteSourceSize": {"x":191,"y":141,"w":117,"h":191},
	"sourceSize": {"w":512,"h":512}
},
"swat_walk_v01_10.png":
{
	"frame": {"x":136,"y":202,"w":117,"h":195},
	"rotated": false,
	"trimmed": true,
	"spriteSourceSize": {"x":191,"y":142,"w":117,"h":195},
	"sourceSize": {"w":512,"h":512}
},
"swat_walk_v01_11.png":
{
	"frame": {"x":255,"y":196,"w":117,"h":193},
	"rotated": false,
	"trimmed": true,
	"spriteSourceSize": {"x":192,"y":144,"w":117,"h":193},
	"sourceSize": {"w":512,"h":512}
},
"swat_walk_v01_12.png":
{
	"frame": {"x":264,"y":792,"w":117,"h":188},
	"rotated": false,
	"trimmed": true,
	"spriteSourceSize": {"x":193,"y":145,"w":117,"h":188},
	"sourceSize": {"w":512,"h":512}
},
"swat_walk_v01_13.png":
{
	"frame": {"x":634,"y":187,"w":117,"h":183},
	"rotated": false,
	"trimmed": true,
	"spriteSourceSize": {"x":194,"y":146,"w":117,"h":183},
	"sourceSize": {"w":512,"h":512}
},
"swat_walk_v01_14.png":
{
	"frame": {"x":897,"y":183,"w":116,"h":178},
	"rotated": false,
	"trimmed": true,
	"spriteSourceSize": {"x":195,"y":146,"w":116,"h":178},
	"sourceSize": {"w":512,"h":512}
},
"swat_walk_v01_15.png":
{
	"frame": {"x":1413,"y":883,"w":116,"h":173},
	"rotated": false,
	"trimmed": true,
	"spriteSourceSize": {"x":196,"y":146,"w":116,"h":173},
	"sourceSize": {"w":512,"h":512}
},
"swat_walk_v01_16.png":
{
	"frame": {"x":1263,"y":357,"w":115,"h":174},
	"rotated": false,
	"trimmed": true,
	"spriteSourceSize": {"x":197,"y":145,"w":115,"h":174},
	"sourceSize": {"w":512,"h":512}
},
"swat_walk_v01_17.png":
{
	"frame": {"x":1380,"y":177,"w":113,"h":173},
	"rotated": false,
	"trimmed": true,
	"spriteSourceSize": {"x":199,"y":145,"w":113,"h":173},
	"sourceSize": {"w":512,"h":512}
},
"swat_walk_v01_18.png":
{
	"frame": {"x":1285,"y":1,"w":110,"h":174},
	"rotated": false,
	"trimmed": true,
	"spriteSourceSize": {"x":201,"y":144,"w":110,"h":174},
	"sourceSize": {"w":512,"h":512}
},
"swat_walk_v01_19.png":
{
	"frame": {"x":1397,"y":1,"w":110,"h":173},
	"rotated": false,
	"trimmed": true,
	"spriteSourceSize": {"x":201,"y":145,"w":110,"h":173},
	"sourceSize": {"w":512,"h":512}
},
"swat_walk_v01_20.png":
{
	"frame": {"x":1509,"y":1,"w":110,"h":172},
	"rotated": false,
	"trimmed": true,
	"spriteSourceSize": {"x":200,"y":146,"w":110,"h":172},
	"sourceSize": {"w":512,"h":512}
},
"swat_walk_v01_21.png":
{
	"frame": {"x":906,"y":1084,"w":112,"h":171},
	"rotated": true,
	"trimmed": true,
	"spriteSourceSize": {"x":198,"y":147,"w":112,"h":171},
	"sourceSize": {"w":512,"h":512}
},
"swat_walk_v01_22.png":
{
	"frame": {"x":1621,"y":1,"w":118,"h":171},
	"rotated": false,
	"trimmed": true,
	"spriteSourceSize": {"x":193,"y":148,"w":118,"h":171},
	"sourceSize": {"w":512,"h":512}
},
"swat_walk_v01_23.png":
{
	"frame": {"x":1288,"y":894,"w":123,"h":173},
	"rotated": false,
	"trimmed": true,
	"spriteSourceSize": {"x":193,"y":148,"w":123,"h":173},
	"sourceSize": {"w":512,"h":512}
},
"swat_walk_v01_24.png":
{
	"frame": {"x":1301,"y":708,"w":123,"h":173},
	"rotated": false,
	"trimmed": true,
	"spriteSourceSize": {"x":198,"y":147,"w":123,"h":173},
	"sourceSize": {"w":512,"h":512}
},
"swat_walk_v03_00.png":
{
	"frame": {"x":260,"y":1,"w":132,"h":192},
	"rotated": false,
	"trimmed": true,
	"spriteSourceSize": {"x":191,"y":143,"w":132,"h":192},
	"sourceSize": {"w":512,"h":512}
},
"swat_walk_v03_01.png":
{
	"frame": {"x":1,"y":202,"w":133,"h":199},
	"rotated": false,
	"trimmed": true,
	"spriteSourceSize": {"x":190,"y":141,"w":133,"h":199},
	"sourceSize": {"w":512,"h":512}
},
"swat_walk_v03_02.png":
{
	"frame": {"x":1,"y":1,"w":134,"h":199},
	"rotated": false,
	"trimmed": true,
	"spriteSourceSize": {"x":189,"y":140,"w":134,"h":199},
	"sourceSize": {"w":512,"h":512}
},
"swat_walk_v03_03.png":
{
	"frame": {"x":135,"y":403,"w":134,"h":195},
	"rotated": false,
	"trimmed": true,
	"spriteSourceSize": {"x":189,"y":138,"w":134,"h":195},
	"sourceSize": {"w":512,"h":512}
},
"swat_walk_v03_04.png":
{
	"frame": {"x":257,"y":995,"w":134,"h":189},
	"rotated": false,
	"trimmed": true,
	"spriteSourceSize": {"x":188,"y":137,"w":134,"h":189},
	"sourceSize": {"w":512,"h":512}
},
"swat_walk_v03_05.png":
{
	"frame": {"x":501,"y":571,"w":133,"h":183},
	"rotated": false,
	"trimmed": true,
	"spriteSourceSize": {"x":188,"y":136,"w":133,"h":183},
	"sourceSize": {"w":512,"h":512}
},
"swat_walk_v03_06.png":
{
	"frame": {"x":906,"y":728,"w":132,"h":176},
	"rotated": false,
	"trimmed": true,
	"spriteSourceSize": {"x":187,"y":135,"w":132,"h":176},
	"sourceSize": {"w":512,"h":512}
},
"swat_walk_v03_07.png":
{
	"frame": {"x":1426,"y":699,"w":131,"h":168},
	"rotated": false,
	"trimmed": true,
	"spriteSourceSize": {"x":187,"y":135,"w":131,"h":168},
	"sourceSize": {"w":512,"h":512}
},
"swat_walk_v03_08.png":
{
	"frame": {"x":1859,"y":262,"w":130,"h":169},
	"rotated": true,
	"trimmed": true,
	"spriteSourceSize": {"x":187,"y":136,"w":130,"h":169},
	"sourceSize": {"w":512,"h":512}
},
"swat_walk_v03_09.png":
{
	"frame": {"x":1394,"y":526,"w":129,"h":171},
	"rotated": false,
	"trimmed": true,
	"spriteSourceSize": {"x":188,"y":137,"w":129,"h":171},
	"sourceSize": {"w":512,"h":512}
},
"swat_walk_v03_10.png":
{
	"frame": {"x":1264,"y":533,"w":128,"h":173},
	"rotated": false,
	"trimmed": true,
	"spriteSourceSize": {"x":188,"y":138,"w":128,"h":173},
	"sourceSize": {"w":512,"h":512}
},
"swat_walk_v03_11.png":
{
	"frame": {"x":906,"y":906,"w":128,"h":176},
	"rotated": false,
	"trimmed": true,
	"spriteSourceSize": {"x":189,"y":139,"w":128,"h":176},
	"sourceSize": {"w":512,"h":512}
},
"swat_walk_v03_12.png":
{
	"frame": {"x":771,"y":736,"w":133,"h":178},
	"rotated": false,
	"trimmed": true,
	"spriteSourceSize": {"x":189,"y":141,"w":133,"h":178},
	"sourceSize": {"w":512,"h":512}
},
"swat_walk_v03_13.png":
{
	"frame": {"x":383,"y":769,"w":138,"h":183},
	"rotated": false,
	"trimmed": true,
	"spriteSourceSize": {"x":190,"y":141,"w":138,"h":183},
	"sourceSize": {"w":512,"h":512}
},
"swat_walk_v03_14.png":
{
	"frame": {"x":649,"y":1,"w":137,"h":182},
	"rotated": false,
	"trimmed": true,
	"spriteSourceSize": {"x":190,"y":141,"w":137,"h":182},
	"sourceSize": {"w":512,"h":512}
},
"swat_walk_v03_15.png":
{
	"frame": {"x":1134,"y":542,"w":128,"h":175},
	"rotated": false,
	"trimmed": true,
	"spriteSourceSize": {"x":191,"y":140,"w":128,"h":175},
	"sourceSize": {"w":512,"h":512}
},
"swat_walk_v03_16.png":
{
	"frame": {"x":1655,"y":523,"w":125,"h":167},
	"rotated": false,
	"trimmed": true,
	"spriteSourceSize": {"x":192,"y":140,"w":125,"h":167},
	"sourceSize": {"w":512,"h":512}
},
"swat_walk_v03_17.png":
{
	"frame": {"x":1531,"y":869,"w":126,"h":168},
	"rotated": false,
	"trimmed": true,
	"spriteSourceSize": {"x":192,"y":140,"w":126,"h":168},
	"sourceSize": {"w":512,"h":512}
},
"swat_walk_v03_18.png":
{
	"frame": {"x":1380,"y":352,"w":128,"h":172},
	"rotated": false,
	"trimmed": true,
	"spriteSourceSize": {"x":192,"y":140,"w":128,"h":172},
	"sourceSize": {"w":512,"h":512}
},
"swat_walk_v03_19.png":
{
	"frame": {"x":1002,"y":542,"w":130,"h":176},
	"rotated": false,
	"trimmed": true,
	"spriteSourceSize": {"x":192,"y":141,"w":130,"h":176},
	"sourceSize": {"w":512,"h":512}
},
"swat_walk_v03_20.png":
{
	"frame": {"x":870,"y":548,"w":130,"h":178},
	"rotated": false,
	"trimmed": true,
	"spriteSourceSize": {"x":193,"y":142,"w":130,"h":178},
	"sourceSize": {"w":512,"h":512}
},
"swat_walk_v03_21.png":
{
	"frame": {"x":523,"y":756,"w":132,"h":181},
	"rotated": false,
	"trimmed": true,
	"spriteSourceSize": {"x":192,"y":143,"w":132,"h":181},
	"sourceSize": {"w":512,"h":512}
},
"swat_walk_v03_22.png":
{
	"frame": {"x":515,"y":376,"w":132,"h":183},
	"rotated": false,
	"trimmed": true,
	"spriteSourceSize": {"x":192,"y":144,"w":132,"h":183},
	"sourceSize": {"w":512,"h":512}
},
"swat_walk_v03_23.png":
{
	"frame": {"x":374,"y":195,"w":133,"h":187},
	"rotated": false,
	"trimmed": true,
	"spriteSourceSize": {"x":191,"y":144,"w":133,"h":187},
	"sourceSize": {"w":512,"h":512}
},
"swat_walk_v03_24.png":
{
	"frame": {"x":1,"y":802,"w":132,"h":192},
	"rotated": false,
	"trimmed": true,
	"spriteSourceSize": {"x":191,"y":143,"w":132,"h":192},
	"sourceSize": {"w":512,"h":512}
},
"swat_walk_v05_00.png":
{
	"frame": {"x":923,"y":1,"w":133,"h":177},
	"rotated": false,
	"trimmed": true,
	"spriteSourceSize": {"x":193,"y":143,"w":133,"h":177},
	"sourceSize": {"w":512,"h":512}
},
"swat_walk_v05_01.png":
{
	"frame": {"x":513,"y":954,"w":140,"h":181},
	"rotated": false,
	"trimmed": true,
	"spriteSourceSize": {"x":188,"y":144,"w":140,"h":181},
	"sourceSize": {"w":512,"h":512}
},
"swat_walk_v05_02.png":
{
	"frame": {"x":753,"y":185,"w":142,"h":180},
	"rotated": false,
	"trimmed": true,
	"spriteSourceSize": {"x":189,"y":144,"w":142,"h":180},
	"sourceSize": {"w":512,"h":512}
},
"swat_walk_v05_03.png":
{
	"frame": {"x":1163,"y":719,"w":136,"h":173},
	"rotated": false,
	"trimmed": true,
	"spriteSourceSize": {"x":197,"y":143,"w":136,"h":173},
	"sourceSize": {"w":512,"h":512}
},
"swat_walk_v05_04.png":
{
	"frame": {"x":1705,"y":692,"w":129,"h":164},
	"rotated": false,
	"trimmed": true,
	"spriteSourceSize": {"x":205,"y":143,"w":129,"h":164},
	"sourceSize": {"w":512,"h":512}
},
"swat_walk_v05_05.png":
{
	"frame": {"x":1751,"y":1030,"w":123,"h":166},
	"rotated": false,
	"trimmed": true,
	"spriteSourceSize": {"x":213,"y":142,"w":123,"h":166},
	"sourceSize": {"w":512,"h":512}
},
"swat_walk_v05_06.png":
{
	"frame": {"x":1860,"y":143,"w":117,"h":170},
	"rotated": true,
	"trimmed": true,
	"spriteSourceSize": {"x":221,"y":142,"w":117,"h":170},
	"sourceSize": {"w":512,"h":512}
},
"swat_walk_v05_07.png":
{
	"frame": {"x":1265,"y":178,"w":113,"h":174},
	"rotated": false,
	"trimmed": true,
	"spriteSourceSize": {"x":226,"y":143,"w":113,"h":174},
	"sourceSize": {"w":512,"h":512}
},
"swat_walk_v05_08.png":
{
	"frame": {"x":1058,"y":1,"w":114,"h":177},
	"rotated": false,
	"trimmed": true,
	"spriteSourceSize": {"x":226,"y":144,"w":114,"h":177},
	"sourceSize": {"w":512,"h":512}
},
"swat_walk_v05_09.png":
{
	"frame": {"x":754,"y":555,"w":114,"h":179},
	"rotated": false,
	"trimmed": true,
	"spriteSourceSize": {"x":226,"y":145,"w":114,"h":179},
	"sourceSize": {"w":512,"h":512}
},
"swat_walk_v05_10.png":
{
	"frame": {"x":393,"y":954,"w":118,"h":182},
	"rotated": false,
	"trimmed": true,
	"spriteSourceSize": {"x":222,"y":146,"w":118,"h":182},
	"sourceSize": {"w":512,"h":512}
},
"swat_walk_v05_11.png":
{
	"frame": {"x":509,"y":189,"w":123,"h":185},
	"rotated": false,
	"trimmed": true,
	"spriteSourceSize": {"x":217,"y":146,"w":123,"h":185},
	"sourceSize": {"w":512,"h":512}
},
"swat_walk_v05_12.png":
{
	"frame": {"x":135,"y":802,"w":127,"h":191},
	"rotated": false,
	"trimmed": true,
	"spriteSourceSize": {"x":211,"y":145,"w":127,"h":191},
	"sourceSize": {"w":512,"h":512}
},
"swat_walk_v05_13.png":
{
	"frame": {"x":1,"y":603,"w":133,"h":197},
	"rotated": false,
	"trimmed": true,
	"spriteSourceSize": {"x":204,"y":143,"w":133,"h":197},
	"sourceSize": {"w":512,"h":512}
},
"swat_walk_v05_14.png":
{
	"frame": {"x":1,"y":403,"w":132,"h":198},
	"rotated": false,
	"trimmed": true,
	"spriteSourceSize": {"x":205,"y":141,"w":132,"h":198},
	"sourceSize": {"w":512,"h":512}
},
"swat_walk_v05_15.png":
{
	"frame": {"x":137,"y":1,"w":121,"h":193},
	"rotated": false,
	"trimmed": true,
	"spriteSourceSize": {"x":215,"y":140,"w":121,"h":193},
	"sourceSize": {"w":512,"h":512}
},
"swat_walk_v05_16.png":
{
	"frame": {"x":271,"y":391,"w":113,"h":188},
	"rotated": false,
	"trimmed": true,
	"spriteSourceSize": {"x":222,"y":138,"w":113,"h":188},
	"sourceSize": {"w":512,"h":512}
},
"swat_walk_v05_17.png":
{
	"frame": {"x":649,"y":372,"w":112,"h":181},
	"rotated": false,
	"trimmed": true,
	"spriteSourceSize": {"x":222,"y":138,"w":112,"h":181},
	"sourceSize": {"w":512,"h":512}
},
"swat_walk_v05_18.png":
{
	"frame": {"x":1174,"y":1,"w":109,"h":175},
	"rotated": false,
	"trimmed": true,
	"spriteSourceSize": {"x":223,"y":137,"w":109,"h":175},
	"sourceSize": {"w":512,"h":512}
},
"swat_walk_v05_19.png":
{
	"frame": {"x":1079,"y":1084,"w":112,"h":167},
	"rotated": true,
	"trimmed": true,
	"spriteSourceSize": {"x":217,"y":137,"w":112,"h":167},
	"sourceSize": {"w":512,"h":512}
},
"swat_walk_v05_20.png":
{
	"frame": {"x":1743,"y":174,"w":114,"h":167},
	"rotated": false,
	"trimmed": true,
	"spriteSourceSize": {"x":212,"y":138,"w":114,"h":167},
	"sourceSize": {"w":512,"h":512}
},
"swat_walk_v05_21.png":
{
	"frame": {"x":1741,"y":1,"w":117,"h":171},
	"rotated": false,
	"trimmed": true,
	"spriteSourceSize": {"x":207,"y":138,"w":117,"h":171},
	"sourceSize": {"w":512,"h":512}
},
"swat_walk_v05_22.png":
{
	"frame": {"x":1495,"y":176,"w":121,"h":172},
	"rotated": false,
	"trimmed": true,
	"spriteSourceSize": {"x":202,"y":140,"w":121,"h":172},
	"sourceSize": {"w":512,"h":512}
},
"swat_walk_v05_23.png":
{
	"frame": {"x":1135,"y":359,"w":126,"h":175},
	"rotated": false,
	"trimmed": true,
	"spriteSourceSize": {"x":198,"y":141,"w":126,"h":175},
	"sourceSize": {"w":512,"h":512}
},
"swat_walk_v05_24.png":
{
	"frame": {"x":1000,"y":363,"w":133,"h":177},
	"rotated": false,
	"trimmed": true,
	"spriteSourceSize": {"x":193,"y":143,"w":133,"h":177},
	"sourceSize": {"w":512,"h":512}
},
"swat_walk_v07_00.png":
{
	"frame": {"x":386,"y":384,"w":127,"h":185},
	"rotated": false,
	"trimmed": true,
	"spriteSourceSize": {"x":208,"y":147,"w":127,"h":185},
	"sourceSize": {"w":512,"h":512}
},
"swat_walk_v07_01.png":
{
	"frame": {"x":788,"y":1,"w":133,"h":180},
	"rotated": false,
	"trimmed": true,
	"spriteSourceSize": {"x":203,"y":148,"w":133,"h":180},
	"sourceSize": {"w":512,"h":512}
},
"swat_walk_v07_02.png":
{
	"frame": {"x":771,"y":916,"w":133,"h":176},
	"rotated": false,
	"trimmed": true,
	"spriteSourceSize": {"x":204,"y":148,"w":133,"h":176},
	"sourceSize": {"w":512,"h":512}
},
"swat_walk_v07_03.png":
{
	"frame": {"x":1510,"y":350,"w":128,"h":171},
	"rotated": false,
	"trimmed": true,
	"spriteSourceSize": {"x":210,"y":148,"w":128,"h":171},
	"sourceSize": {"w":512,"h":512}
},
"swat_walk_v07_04.png":
{
	"frame": {"x":1525,"y":523,"w":128,"h":168},
	"rotated": false,
	"trimmed": true,
	"spriteSourceSize": {"x":210,"y":147,"w":128,"h":168},
	"sourceSize": {"w":512,"h":512}
},
"swat_walk_v07_05.png":
{
	"frame": {"x":1248,"y":1069,"w":127,"h":164},
	"rotated": true,
	"trimmed": true,
	"spriteSourceSize": {"x":212,"y":146,"w":127,"h":164},
	"sourceSize": {"w":512,"h":512}
},
"swat_walk_v07_06.png":
{
	"frame": {"x":1640,"y":394,"w":127,"h":164},
	"rotated": true,
	"trimmed": true,
	"spriteSourceSize": {"x":213,"y":146,"w":127,"h":164},
	"sourceSize": {"w":512,"h":512}
},
"swat_walk_v07_07.png":
{
	"frame": {"x":1806,"y":394,"w":125,"h":164},
	"rotated": true,
	"trimmed": true,
	"spriteSourceSize": {"x":215,"y":147,"w":125,"h":164},
	"sourceSize": {"w":512,"h":512}
},
"swat_walk_v07_08.png":
{
	"frame": {"x":1782,"y":523,"w":128,"h":164},
	"rotated": false,
	"trimmed": true,
	"spriteSourceSize": {"x":211,"y":148,"w":128,"h":164},
	"sourceSize": {"w":512,"h":512}
},
"swat_walk_v07_09.png":
{
	"frame": {"x":1876,"y":1023,"w":133,"h":163},
	"rotated": false,
	"trimmed": true,
	"spriteSourceSize": {"x":206,"y":149,"w":133,"h":163},
	"sourceSize": {"w":512,"h":512}
},
"swat_walk_v07_10.png":
{
	"frame": {"x":1414,"y":1058,"w":137,"h":168},
	"rotated": true,
	"trimmed": true,
	"spriteSourceSize": {"x":201,"y":150,"w":137,"h":168},
	"sourceSize": {"w":512,"h":512}
},
"swat_walk_v07_11.png":
{
	"frame": {"x":1860,"y":1,"w":140,"h":170},
	"rotated": true,
	"trimmed": true,
	"spriteSourceSize": {"x":197,"y":150,"w":140,"h":170},
	"sourceSize": {"w":512,"h":512}
},
"swat_walk_v07_12.png":
{
	"frame": {"x":1559,"y":693,"w":144,"h":167},
	"rotated": false,
	"trimmed": true,
	"spriteSourceSize": {"x":192,"y":149,"w":144,"h":167},
	"sourceSize": {"w":512,"h":512}
},
"swat_walk_v07_13.png":
{
	"frame": {"x":1584,"y":1039,"w":149,"h":165},
	"rotated": true,
	"trimmed": true,
	"spriteSourceSize": {"x":187,"y":147,"w":149,"h":165},
	"sourceSize": {"w":512,"h":512}
},
"swat_walk_v07_14.png":
{
	"frame": {"x":1792,"y":858,"w":147,"h":163},
	"rotated": false,
	"trimmed": true,
	"spriteSourceSize": {"x":188,"y":145,"w":147,"h":163},
	"sourceSize": {"w":512,"h":512}
},
"swat_walk_v07_15.png":
{
	"frame": {"x":1836,"y":689,"w":140,"h":163},
	"rotated": false,
	"trimmed": true,
	"spriteSourceSize": {"x":195,"y":144,"w":140,"h":163},
	"sourceSize": {"w":512,"h":512}
},
"swat_walk_v07_16.png":
{
	"frame": {"x":1659,"y":862,"w":131,"h":166},
	"rotated": false,
	"trimmed": true,
	"spriteSourceSize": {"x":203,"y":143,"w":131,"h":166},
	"sourceSize": {"w":512,"h":512}
},
"swat_walk_v07_17.png":
{
	"frame": {"x":1618,"y":175,"w":123,"h":171},
	"rotated": false,
	"trimmed": true,
	"spriteSourceSize": {"x":211,"y":142,"w":123,"h":171},
	"sourceSize": {"w":512,"h":512}
},
"swat_walk_v07_18.png":
{
	"frame": {"x":1040,"y":720,"w":121,"h":176},
	"rotated": false,
	"trimmed": true,
	"spriteSourceSize": {"x":213,"y":141,"w":121,"h":176},
	"sourceSize": {"w":512,"h":512}
},
"swat_walk_v07_19.png":
{
	"frame": {"x":1015,"y":180,"w":122,"h":177},
	"rotated": false,
	"trimmed": true,
	"spriteSourceSize": {"x":211,"y":141,"w":122,"h":177},
	"sourceSize": {"w":512,"h":512}
},
"swat_walk_v07_20.png":
{
	"frame": {"x":523,"y":1,"w":124,"h":184},
	"rotated": false,
	"trimmed": true,
	"spriteSourceSize": {"x":209,"y":142,"w":124,"h":184},
	"sourceSize": {"w":512,"h":512}
},
"swat_walk_v07_21.png":
{
	"frame": {"x":255,"y":600,"w":125,"h":190},
	"rotated": false,
	"trimmed": true,
	"spriteSourceSize": {"x":208,"y":142,"w":125,"h":190},
	"sourceSize": {"w":512,"h":512}
},
"swat_walk_v07_22.png":
{
	"frame": {"x":1,"y":996,"w":126,"h":192},
	"rotated": false,
	"trimmed": true,
	"spriteSourceSize": {"x":208,"y":144,"w":126,"h":192},
	"sourceSize": {"w":512,"h":512}
},
"swat_walk_v07_23.png":
{
	"frame": {"x":129,"y":996,"w":126,"h":192},
	"rotated": false,
	"trimmed": true,
	"spriteSourceSize": {"x":208,"y":145,"w":126,"h":192},
	"sourceSize": {"w":512,"h":512}
},
"swat_walk_v07_24.png":
{
	"frame": {"x":394,"y":1,"w":127,"h":186},
	"rotated": false,
	"trimmed": true,
	"spriteSourceSize": {"x":208,"y":147,"w":127,"h":186},
	"sourceSize": {"w":512,"h":512}
}},
"animations": {
	"swat_walk_v01": ["swat_walk_v01_06.png","swat_walk_v01_07.png","swat_walk_v01_08.png","swat_walk_v01_09.png","swat_walk_v01_10.png","swat_walk_v01_11.png","swat_walk_v01_12.png","swat_walk_v01_13.png","swat_walk_v01_14.png","swat_walk_v01_15.png","swat_walk_v01_16.png","swat_walk_v01_17.png","swat_walk_v01_18.png","swat_walk_v01_19.png","swat_walk_v01_20.png","swat_walk_v01_21.png","swat_walk_v01_22.png","swat_walk_v01_23.png","swat_walk_v01_24.png","swat_walk_v01_00.png","swat_walk_v01_01.png","swat_walk_v01_02.png","swat_walk_v01_03.png","swat_walk_v01_04.png","swat_walk_v01_05.png"],
	"swat_walk_v03": ["swat_walk_v03_06.png","swat_walk_v03_07.png","swat_walk_v03_08.png","swat_walk_v03_09.png","swat_walk_v03_10.png","swat_walk_v03_11.png","swat_walk_v03_12.png","swat_walk_v03_13.png","swat_walk_v03_14.png","swat_walk_v03_15.png","swat_walk_v03_16.png","swat_walk_v03_17.png","swat_walk_v03_18.png","swat_walk_v03_19.png","swat_walk_v03_20.png","swat_walk_v03_21.png","swat_walk_v03_22.png","swat_walk_v03_23.png","swat_walk_v03_24.png","swat_walk_v03_00.png","swat_walk_v03_01.png","swat_walk_v03_02.png","swat_walk_v03_03.png","swat_walk_v03_04.png","swat_walk_v03_05.png"],
	"swat_walk_v05": ["swat_walk_v05_06.png","swat_walk_v05_07.png","swat_walk_v05_08.png","swat_walk_v05_09.png","swat_walk_v05_10.png","swat_walk_v05_11.png","swat_walk_v05_12.png","swat_walk_v05_13.png","swat_walk_v05_14.png","swat_walk_v05_15.png","swat_walk_v05_16.png","swat_walk_v05_17.png","swat_walk_v05_18.png","swat_walk_v05_19.png","swat_walk_v05_20.png","swat_walk_v05_21.png","swat_walk_v05_22.png","swat_walk_v05_23.png","swat_walk_v05_24.png","swat_walk_v05_00.png","swat_walk_v05_01.png","swat_walk_v05_02.png","swat_walk_v05_03.png","swat_walk_v05_04.png","swat_walk_v05_05.png"],
	"swat_walk_v07": ["swat_walk_v07_06.png","swat_walk_v07_07.png","swat_walk_v07_08.png","swat_walk_v07_09.png","swat_walk_v07_10.png","swat_walk_v07_11.png","swat_walk_v07_12.png","swat_walk_v07_13.png","swat_walk_v07_14.png","swat_walk_v07_15.png","swat_walk_v07_16.png","swat_walk_v07_17.png","swat_walk_v07_18.png","swat_walk_v07_19.png","swat_walk_v07_20.png","swat_walk_v07_21.png","swat_walk_v07_22.png","swat_walk_v07_23.png","swat_walk_v07_24.png","swat_walk_v07_00.png","swat_walk_v07_01.png","swat_walk_v07_02.png","swat_walk_v07_03.png","swat_walk_v07_04.png","swat_walk_v07_05.png"]
},
"meta": {
	"app": "https://www.codeandweb.com/texturepacker",
	"version": "1.0",
	"image": "soldier_walk.png",
	"format": "RGBA8888",
	"size": {"w":2031,"h":1197},
	"scale": "1",
	"smartupdate": "$TexturePacker:SmartUpdate:5256dba8e597ca69654031cecdea5cbe:1012178b83859a26820a344d73f8c113:39d50c76c684bf4c86f62ed08356a588$"
}
}
